%YAML 1.1
%TAG !u! tag:unity3d.com,2011:
--- !u!1001 &6181307163937257036
PrefabInstance:
  m_ObjectHideFlags: 0
  serializedVersion: 2
  m_Modification:
    m_TransformParent: {fileID: 0}
    m_Modifications:
    - target: {fileID: 937320213831866898, guid: f6036f510abe8d74a84965c7d90c0229,
        type: 3}
      propertyPath: m_Name
      value: 10kResistor
      objectReference: {fileID: 0}
    - target: {fileID: 937320213831866896, guid: f6036f510abe8d74a84965c7d90c0229,
        type: 3}
      propertyPath: m_LocalPosition.x
      value: 0
      objectReference: {fileID: 0}
    - target: {fileID: 937320213831866896, guid: f6036f510abe8d74a84965c7d90c0229,
        type: 3}
      propertyPath: m_LocalPosition.y
      value: 0
      objectReference: {fileID: 0}
    - target: {fileID: 937320213831866896, guid: f6036f510abe8d74a84965c7d90c0229,
        type: 3}
      propertyPath: m_LocalPosition.z
      value: 0
      objectReference: {fileID: 0}
    - target: {fileID: 937320213831866896, guid: f6036f510abe8d74a84965c7d90c0229,
        type: 3}
      propertyPath: m_LocalRotation.x
      value: 0
      objectReference: {fileID: 0}
    - target: {fileID: 937320213831866896, guid: f6036f510abe8d74a84965c7d90c0229,
        type: 3}
      propertyPath: m_LocalRotation.y
      value: 0
      objectReference: {fileID: 0}
    - target: {fileID: 937320213831866896, guid: f6036f510abe8d74a84965c7d90c0229,
        type: 3}
      propertyPath: m_LocalRotation.z
      value: 0
      objectReference: {fileID: 0}
    - target: {fileID: 937320213831866896, guid: f6036f510abe8d74a84965c7d90c0229,
        type: 3}
      propertyPath: m_LocalRotation.w
      value: 1
      objectReference: {fileID: 0}
    - target: {fileID: 937320213831866896, guid: f6036f510abe8d74a84965c7d90c0229,
        type: 3}
      propertyPath: m_RootOrder
      value: 0
      objectReference: {fileID: 0}
    - target: {fileID: 937320213831866896, guid: f6036f510abe8d74a84965c7d90c0229,
        type: 3}
      propertyPath: m_LocalEulerAnglesHint.x
      value: 0
      objectReference: {fileID: 0}
    - target: {fileID: 937320213831866896, guid: f6036f510abe8d74a84965c7d90c0229,
        type: 3}
      propertyPath: m_LocalEulerAnglesHint.y
      value: 0
      objectReference: {fileID: 0}
    - target: {fileID: 937320213831866896, guid: f6036f510abe8d74a84965c7d90c0229,
        type: 3}
      propertyPath: m_LocalEulerAnglesHint.z
      value: 0
      objectReference: {fileID: 0}
    - target: {fileID: 7664702169069031910, guid: f6036f510abe8d74a84965c7d90c0229,
        type: 3}
      propertyPath: connectorWires.Array.size
      value: 2
      objectReference: {fileID: 0}
    - target: {fileID: 7664702169069031910, guid: f6036f510abe8d74a84965c7d90c0229,
        type: 3}
      propertyPath: connectorWires.Array.data[0]
      value: 
      objectReference: {fileID: 4423132900916776980}
    - target: {fileID: 7664702169069031910, guid: f6036f510abe8d74a84965c7d90c0229,
        type: 3}
      propertyPath: connectorWires.Array.data[1]
      value: 
      objectReference: {fileID: 3750193046793843419}
    - target: {fileID: 7664702169069031910, guid: f6036f510abe8d74a84965c7d90c0229,
        type: 3}
      propertyPath: resistance
      value: 10000
      objectReference: {fileID: 0}
    - target: {fileID: 8878017375570040832, guid: f6036f510abe8d74a84965c7d90c0229,
        type: 3}
      propertyPath: m_Materials.Array.data[2]
      value: 
      objectReference: {fileID: 2100000, guid: 3f36b9bf0b60d504693efab914828dca, type: 2}
    - target: {fileID: 8878017375570040832, guid: f6036f510abe8d74a84965c7d90c0229,
        type: 3}
      propertyPath: m_Materials.Array.data[1]
      value: 
      objectReference: {fileID: 2100000, guid: 944fdf30f23321849a565ac232778d94, type: 2}
    - target: {fileID: 8878017375570040832, guid: f6036f510abe8d74a84965c7d90c0229,
        type: 3}
      propertyPath: m_Materials.Array.data[3]
      value: 
      objectReference: {fileID: 2100000, guid: 8917cd4e2a279b942a35f5299914022a, type: 2}
    - target: {fileID: 8975448310414770081, guid: f6036f510abe8d74a84965c7d90c0229,
        type: 3}
      propertyPath: m_Mesh
      value: 
      objectReference: {fileID: 0}
    - target: {fileID: 5893831533567305446, guid: f6036f510abe8d74a84965c7d90c0229,
        type: 3}
      propertyPath: m_Mesh
      value: 
      objectReference: {fileID: 0}
    - target: {fileID: 8376369569464705840, guid: f6036f510abe8d74a84965c7d90c0229,
        type: 3}
      propertyPath: m_Mesh
      value: 
      objectReference: {fileID: 0}
    - target: {fileID: 5960292778324967586, guid: f6036f510abe8d74a84965c7d90c0229,
        type: 3}
      propertyPath: m_Mesh
      value: 
      objectReference: {fileID: 0}
    m_RemovedComponents: []
  m_SourcePrefab: {fileID: 100100000, guid: f6036f510abe8d74a84965c7d90c0229, type: 3}
--- !u!114 &4423132900916776980 stripped
MonoBehaviour:
  m_CorrespondingSourceObject: {fileID: 7541970190300505688, guid: f6036f510abe8d74a84965c7d90c0229,
    type: 3}
  m_PrefabInstance: {fileID: 6181307163937257036}
  m_PrefabAsset: {fileID: 0}
  m_GameObject: {fileID: 0}
  m_Enabled: 1
  m_EditorHideFlags: 0
  m_Script: {fileID: 11500000, guid: 9d8b8727d4f734d478459bf5c2b284b1, type: 3}
  m_Name: 
  m_EditorClassIdentifier: 
--- !u!114 &3750193046793843419 stripped
MonoBehaviour:
  m_CorrespondingSourceObject: {fileID: 7044534343549043863, guid: f6036f510abe8d74a84965c7d90c0229,
    type: 3}
  m_PrefabInstance: {fileID: 6181307163937257036}
  m_PrefabAsset: {fileID: 0}
  m_GameObject: {fileID: 0}
  m_Enabled: 1
  m_EditorHideFlags: 0
  m_Script: {fileID: 11500000, guid: 9d8b8727d4f734d478459bf5c2b284b1, type: 3}
  m_Name: 
  m_EditorClassIdentifier: 
