%YAML 1.1
%TAG !u! tag:unity3d.com,2011:
--- !u!1001 &2221380632899528538
PrefabInstance:
  m_ObjectHideFlags: 0
  serializedVersion: 2
  m_Modification:
    m_TransformParent: {fileID: 0}
    m_Modifications:
    - target: {fileID: 314226798720808570, guid: e8a29b81ffa7ba145836ba6bc303548e,
        type: 3}
      propertyPath: m_Name
      value: _TestCircuitFULL
      objectReference: {fileID: 0}
    - target: {fileID: 1081826726251164582, guid: e8a29b81ffa7ba145836ba6bc303548e,
        type: 3}
      propertyPath: m_LocalPosition.x
      value: -0.61688864
      objectReference: {fileID: 0}
    - target: {fileID: 1081826726251164582, guid: e8a29b81ffa7ba145836ba6bc303548e,
        type: 3}
      propertyPath: m_LocalPosition.y
      value: 0.844
      objectReference: {fileID: 0}
    - target: {fileID: 1081826726251164582, guid: e8a29b81ffa7ba145836ba6bc303548e,
        type: 3}
      propertyPath: m_LocalPosition.z
      value: 4.014658
      objectReference: {fileID: 0}
    - target: {fileID: 1081826726251164582, guid: e8a29b81ffa7ba145836ba6bc303548e,
        type: 3}
      propertyPath: m_LocalRotation.x
      value: 0
      objectReference: {fileID: 0}
    - target: {fileID: 1081826726251164582, guid: e8a29b81ffa7ba145836ba6bc303548e,
        type: 3}
      propertyPath: m_LocalRotation.y
      value: 0
      objectReference: {fileID: 0}
    - target: {fileID: 1081826726251164582, guid: e8a29b81ffa7ba145836ba6bc303548e,
        type: 3}
      propertyPath: m_LocalRotation.z
      value: 0
      objectReference: {fileID: 0}
    - target: {fileID: 1081826726251164582, guid: e8a29b81ffa7ba145836ba6bc303548e,
        type: 3}
      propertyPath: m_LocalRotation.w
      value: 1
      objectReference: {fileID: 0}
    - target: {fileID: 1081826726251164582, guid: e8a29b81ffa7ba145836ba6bc303548e,
        type: 3}
      propertyPath: m_RootOrder
      value: 0
      objectReference: {fileID: 0}
    - target: {fileID: 1081826726251164582, guid: e8a29b81ffa7ba145836ba6bc303548e,
        type: 3}
      propertyPath: m_LocalEulerAnglesHint.x
      value: 0
      objectReference: {fileID: 0}
    - target: {fileID: 1081826726251164582, guid: e8a29b81ffa7ba145836ba6bc303548e,
        type: 3}
      propertyPath: m_LocalEulerAnglesHint.y
      value: 0
      objectReference: {fileID: 0}
    - target: {fileID: 1081826726251164582, guid: e8a29b81ffa7ba145836ba6bc303548e,
        type: 3}
      propertyPath: m_LocalEulerAnglesHint.z
      value: 0
      objectReference: {fileID: 0}
    - target: {fileID: 301690995790731414, guid: e8a29b81ffa7ba145836ba6bc303548e,
        type: 3}
      propertyPath: m_Mesh
      value: 
      objectReference: {fileID: 0}
    - target: {fileID: 1109886966686887185, guid: e8a29b81ffa7ba145836ba6bc303548e,
        type: 3}
      propertyPath: m_Mesh
      value: 
      objectReference: {fileID: 0}
    - target: {fileID: 1418822267841753424, guid: e8a29b81ffa7ba145836ba6bc303548e,
        type: 3}
      propertyPath: m_Mesh
      value: 
      objectReference: {fileID: 0}
    - target: {fileID: 3359236269116787623, guid: e8a29b81ffa7ba145836ba6bc303548e,
        type: 3}
      propertyPath: m_Mesh
      value: 
      objectReference: {fileID: 0}
    - target: {fileID: 4000065639605911183, guid: e8a29b81ffa7ba145836ba6bc303548e,
        type: 3}
      propertyPath: m_Mesh
      value: 
      objectReference: {fileID: 0}
    - target: {fileID: 5960742738060803285, guid: e8a29b81ffa7ba145836ba6bc303548e,
        type: 3}
      propertyPath: m_Mesh
      value: 
      objectReference: {fileID: 0}
    - target: {fileID: 8352057926915619586, guid: e8a29b81ffa7ba145836ba6bc303548e,
        type: 3}
      propertyPath: m_Mesh
      value: 
      objectReference: {fileID: 0}
    - target: {fileID: 1611800059715452219, guid: e8a29b81ffa7ba145836ba6bc303548e,
        type: 3}
      propertyPath: m_Mesh
      value: 
      objectReference: {fileID: 0}
    - target: {fileID: 395353186641211654, guid: e8a29b81ffa7ba145836ba6bc303548e,
        type: 3}
      propertyPath: m_Mesh
      value: 
      objectReference: {fileID: 0}
    - target: {fileID: 305161046697728656, guid: e8a29b81ffa7ba145836ba6bc303548e,
        type: 3}
      propertyPath: m_Mesh
      value: 
      objectReference: {fileID: 0}
    - target: {fileID: 4258832670553433212, guid: e8a29b81ffa7ba145836ba6bc303548e,
        type: 3}
      propertyPath: m_Mesh
      value: 
      objectReference: {fileID: 0}
    - target: {fileID: 6046908211141302075, guid: e8a29b81ffa7ba145836ba6bc303548e,
        type: 3}
      propertyPath: m_Mesh
      value: 
      objectReference: {fileID: 0}
    - target: {fileID: 126131800674921799, guid: e8a29b81ffa7ba145836ba6bc303548e,
        type: 3}
      propertyPath: m_Mesh
      value: 
      objectReference: {fileID: 0}
    - target: {fileID: 2898270329634940993, guid: e8a29b81ffa7ba145836ba6bc303548e,
        type: 3}
      propertyPath: m_Mesh
      value: 
      objectReference: {fileID: 0}
    - target: {fileID: 7181652154825772590, guid: e8a29b81ffa7ba145836ba6bc303548e,
        type: 3}
      propertyPath: m_Mesh
      value: 
      objectReference: {fileID: 0}
    - target: {fileID: 2988152063735940055, guid: e8a29b81ffa7ba145836ba6bc303548e,
        type: 3}
      propertyPath: m_Mesh
      value: 
      objectReference: {fileID: 0}
    - target: {fileID: 6075469876996036802, guid: e8a29b81ffa7ba145836ba6bc303548e,
        type: 3}
      propertyPath: m_Mesh
      value: 
      objectReference: {fileID: 0}
    - target: {fileID: 6202087398776067710, guid: e8a29b81ffa7ba145836ba6bc303548e,
        type: 3}
      propertyPath: m_Mesh
      value: 
      objectReference: {fileID: 0}
    - target: {fileID: 8936264524463272091, guid: e8a29b81ffa7ba145836ba6bc303548e,
        type: 3}
      propertyPath: m_Mesh
      value: 
      objectReference: {fileID: 0}
    - target: {fileID: 5642835755241183256, guid: e8a29b81ffa7ba145836ba6bc303548e,
        type: 3}
      propertyPath: m_Mesh
      value: 
      objectReference: {fileID: 0}
    - target: {fileID: 1556740927215972007, guid: e8a29b81ffa7ba145836ba6bc303548e,
        type: 3}
      propertyPath: m_Mesh
      value: 
      objectReference: {fileID: 0}
    - target: {fileID: 4097868303264233440, guid: e8a29b81ffa7ba145836ba6bc303548e,
        type: 3}
      propertyPath: m_Mesh
      value: 
      objectReference: {fileID: 0}
    - target: {fileID: 8578509480002415836, guid: e8a29b81ffa7ba145836ba6bc303548e,
        type: 3}
      propertyPath: m_Mesh
      value: 
      objectReference: {fileID: 0}
    - target: {fileID: 153917466630388174, guid: e8a29b81ffa7ba145836ba6bc303548e,
        type: 3}
      propertyPath: initializeCircuitOnStart
      value: 1
      objectReference: {fileID: 0}
    - target: {fileID: 301690996781954921, guid: e8a29b81ffa7ba145836ba6bc303548e,
        type: 3}
      propertyPath: m_Name
      value: PotGround
      objectReference: {fileID: 0}
    - target: {fileID: 521542198829930659, guid: e8a29b81ffa7ba145836ba6bc303548e,
        type: 3}
      propertyPath: potPosition
      value: 1
      objectReference: {fileID: 0}
    - target: {fileID: 301690995301049103, guid: e8a29b81ffa7ba145836ba6bc303548e,
        type: 3}
      propertyPath: nodes.Array.data[0].position.y
      value: -0.013072915
      objectReference: {fileID: 0}
    - target: {fileID: 301690995301049103, guid: e8a29b81ffa7ba145836ba6bc303548e,
        type: 3}
      propertyPath: nodes.Array.data[0].direction.y
      value: 0.004357569
      objectReference: {fileID: 0}
    - target: {fileID: 301690995301049103, guid: e8a29b81ffa7ba145836ba6bc303548e,
        type: 3}
      propertyPath: nodes.Array.data[1].position.y
      value: -0.013072915
      objectReference: {fileID: 0}
    - target: {fileID: 301690995301049103, guid: e8a29b81ffa7ba145836ba6bc303548e,
        type: 3}
      propertyPath: curves.Array.data[0].n1.position.y
      value: -0.013072915
      objectReference: {fileID: 0}
    - target: {fileID: 301690995301049103, guid: e8a29b81ffa7ba145836ba6bc303548e,
        type: 3}
      propertyPath: curves.Array.data[0].n1.direction.y
      value: 0.004357569
      objectReference: {fileID: 0}
    - target: {fileID: 301690995301049103, guid: e8a29b81ffa7ba145836ba6bc303548e,
        type: 3}
      propertyPath: curves.Array.data[0].n2.position.y
      value: -0.013072915
      objectReference: {fileID: 0}
    - target: {fileID: 301690995301049103, guid: e8a29b81ffa7ba145836ba6bc303548e,
        type: 3}
      propertyPath: Length
      value: 0.07976159
      objectReference: {fileID: 0}
    - target: {fileID: 8189693261436961626, guid: e8a29b81ffa7ba145836ba6bc303548e,
        type: 3}
      propertyPath: m_Mesh
      value: 
      objectReference: {fileID: 0}
    m_RemovedComponents: []
  m_SourcePrefab: {fileID: 100100000, guid: e8a29b81ffa7ba145836ba6bc303548e, type: 3}
